<svg width="15" height="19" viewBox="0 0 15 19" fill="none" xmlns="http://www.w3.org/2000/svg">
<path d="M7.3418 0.8125C6.95508 0.8125 6.62565 0.948568 6.35352 1.2207C6.0957 1.47852 5.9668 1.80078 5.9668 2.1875L5.98828 2.35938C5.20052 2.5599 4.49154 2.91797 3.86133 3.43359C3.23112 3.94922 2.73698 4.57943 2.37891 5.32422C2.02083 6.05469 1.8418 6.84245 1.8418 7.6875V13.875C1.8418 14.0755 1.77734 14.2402 1.64844 14.3691C1.51953 14.498 1.35482 14.5625 1.1543 14.5625H0.466797V15.9375H5.4082C5.32227 16.181 5.2793 16.4102 5.2793 16.625C5.2793 17.1836 5.47982 17.6634 5.88086 18.0645C6.29622 18.4798 6.7832 18.6875 7.3418 18.6875C7.90039 18.6875 8.38021 18.4798 8.78125 18.0645C9.19661 17.6634 9.4043 17.1836 9.4043 16.625C9.4043 16.4102 9.36133 16.181 9.27539 15.9375H14.2168V14.5625H13.5293C13.3288 14.5625 13.1641 14.498 13.0352 14.3691C12.9062 14.2402 12.8418 14.0755 12.8418 13.875V7.88086C12.8418 7.03581 12.6628 6.23372 12.3047 5.47461C11.9609 4.70117 11.474 4.04232 10.8438 3.49805C10.2135 2.95378 9.4974 2.57422 8.69531 2.35938L8.7168 2.1875C8.7168 1.80078 8.58073 1.47852 8.30859 1.2207C8.05078 0.948568 7.72852 0.8125 7.3418 0.8125ZM7.04102 3.5625C7.08398 3.5625 7.14844 3.5625 7.23438 3.5625H7.4707C8.20117 3.59115 8.87435 3.80599 9.49023 4.20703C10.1061 4.59375 10.5859 5.11654 10.9297 5.77539C11.2878 6.43424 11.4668 7.13607 11.4668 7.88086V13.875C11.4668 14.0898 11.5098 14.319 11.5957 14.5625H3.08789C3.17383 14.319 3.2168 14.0898 3.2168 13.875V7.6875C3.2168 6.97135 3.38151 6.3125 3.71094 5.71094C4.05469 5.09505 4.52018 4.60091 5.10742 4.22852C5.69466 3.8418 6.33919 3.61979 7.04102 3.5625ZM7.3418 15.9375C7.54232 15.9375 7.70703 16.002 7.83594 16.1309C7.96484 16.2598 8.0293 16.4245 8.0293 16.625C8.0293 16.8112 7.96484 16.9759 7.83594 17.1191C7.70703 17.248 7.54232 17.3125 7.3418 17.3125C7.1556 17.3125 6.99089 17.248 6.84766 17.1191C6.71875 16.9759 6.6543 16.8112 6.6543 16.625C6.6543 16.4245 6.71875 16.2598 6.84766 16.1309C6.99089 16.002 7.1556 15.9375 7.3418 15.9375Z" fill="#8181A5"/>
</svg>
