<svg width="97" height="65" viewBox="0 0 97 65" fill="none" xmlns="http://www.w3.org/2000/svg">
<path fill-rule="evenodd" clip-rule="evenodd" d="M48.4999 0C63.251 0 75.376 10.5044 78.2051 24.4472C88.7905 25.067 97.0441 33.8549 96.9998 44.4583C96.9998 55.5719 87.9051 64.6667 76.7915 64.6667H24.25C10.9105 64.6667 0 53.7522 0 40.4167C0 27.8816 9.49691 17.5763 21.6219 16.3638C26.6749 6.66776 36.7791 0 48.4999 0ZM54.9667 51.9643V36.5019L68.7083 36.5119L48.5 16.1667L28.2917 36.5019H42.0333V51.9643H54.9667Z" fill="#EEEEEE"/>
</svg>
