<svg width="328" height="182" viewBox="0 0 328 182" fill="none" xmlns="http://www.w3.org/2000/svg">
<rect opacity="0.01" width="328" height="182" rx="10" fill="#D8D8D8"/>
<mask id="mask0" mask-type="alpha" maskUnits="userSpaceOnUse" x="0" y="0" width="328" height="182">
<rect width="328" height="182" rx="10" fill="white"/>
</mask>
<g mask="url(#mask0)">
<path d="M-71.3044 158.848C-71.3044 158.848 -45.8959 194.661 -28.1666 187.715C-10.4373 180.769 2.64617 138.654 19.9764 138.654C37.3065 138.654 52.6451 149.013 74.2579 126.013C95.8707 103.013 99.4411 71.3997 125.456 71.3997C151.472 71.3997 184.916 139.282 219.82 87.3815C254.724 35.4813 328 130.121 328 130.121V217H-71.3044L-71.3044 158.848Z" fill="white"/>
<path d="M-71.3044 158.848C-71.3044 158.848 -45.8959 194.661 -28.1666 187.715C-10.4373 180.769 2.64617 138.654 19.9764 138.654C37.3065 138.654 52.6451 149.013 74.2579 126.013C95.8707 103.013 99.4411 71.3997 125.456 71.3997C151.472 71.3997 184.916 139.282 219.82 87.3815C254.724 35.4813 328 130.121 328 130.121V217H-71.3044L-71.3044 158.848Z" fill="#4D4CAC" fill-opacity="0.1"/>
<path d="M-40.7454 146.458C-40.7454 146.458 -15.3368 168.962 2.39249 164.598C20.1218 160.233 33.2052 133.769 50.5354 133.769C67.8656 133.769 83.2041 140.278 104.817 125.826C126.43 111.373 130 91.5079 156.015 91.5079C182.031 91.5079 215.475 134.163 250.379 101.551C285.283 68.9376 358.559 128.407 358.559 128.407V183H-40.7454L-40.7454 146.458Z" fill="#5E81F4"/>
</g>
</svg>
